Matt’s IS415 Experience - Take-Home Exercise 1
…
spt <- as_spacetime(dengue_vils_gb_vc_epi, "VILLCODE", "epiweek")

activate(spt, "geometry")

Simple feature collection with 258 features and 1 field
Geometry type: POLYGON
Dimension:     XY
Bounding box:  xmin: 120.062662846 ymin: 22.8940068630001 xmax: 120.292497157 ymax: 23.091435597
Geodetic CRS:  TWD97
# A tibble: 258 × 2
# Groups:   VILLCODE [258]
   VILLCODE                                                             geometry
 * <chr>                                                           <POLYGON [°]>
 1 67000270001 ((120.267199621 22.9965466200001, 120.266803062 22.996425774, 12…
 2 67000270002 ((120.265902836 22.9914598060001, 120.263120801 22.9913248080001…
 3 67000270003 ((120.24922797 22.9826484070001, 120.249236725 22.9824418960001,…
 4 67000270004 ((120.239006994 22.9801191660001, 120.238946159 22.9801121730001…
 5 67000270005 ((120.257650095 22.9743218020001, 120.257159134 22.9743164970001…
 6 67000270006 ((120.271278468 22.968037284, 120.271186859 22.968026335, 120.27…
 7 67000270007 ((120.240394094 22.959146869, 120.240370804 22.9588424400001, 12…
 8 67000270008 ((120.270074093 22.948409235, 120.268383742 22.9463228920001, 12…
 9 67000270011 ((120.230434145 22.9354366160001, 120.23014601 22.9351129940001,…
10 67000270012 ((120.224656159 22.9616519420001, 120.224655578 22.9616484510001…
# ℹ 248 more rows

activate(spt, "data")

# A tibble: 3,518 × 3
# Groups:   VILLCODE [258]
   VILLCODE    epi_week count
 * <chr>          <dbl> <int>
 1 67000270001       33     1
 2 67000270001       34     1
 3 67000270001       35     2
 4 67000270001       36     2
 5 67000270001       37     6
 6 67000270001       38     3
 7 67000270001       39     4
 8 67000270001       40     1
 9 67000270001       41     1
10 67000270001       42     2
# ℹ 3,508 more rows
…
